[{
  "id": 1,
  "fecha": "3/30/2019",
  "importe": 33,
  "latitud": 42.4762027,
  "longitud": 20.2775059
}, {
  "id": 2,
  "fecha": "11/30/2019",
  "importe": 56,
  "latitud": 52.1361219,
  "longitud": -8.642661
}, {
  "id": 3,
  "fecha": "8/21/2019",
  "importe": 34,
  "latitud": 42.5572675,
  "longitud": 20.3027502
}, {
  "id": 4,
  "fecha": "11/26/2019",
  "importe": 67,
  "latitud": 18.4521371,
  "longitud": -72.2867105
}, {
  "id": 5,
  "fecha": "11/28/2019",
  "importe": 55,
  "latitud": -6.2188206,
  "longitud": 106.6236044
}, {
  "id": 6,
  "fecha": "8/10/2019",
  "importe": 55,
  "latitud": 27.351652,
  "longitud": 118.764807
}, {
  "id": 7,
  "fecha": "9/3/2019",
  "importe": 70,
  "latitud": 22.69569,
  "longitud": 112.225334
}, {
  "id": 8,
  "fecha": "2/26/2020",
  "importe": 63,
  "latitud": 11.8852599,
  "longitud": 3.4548833
}, {
  "id": 9,
  "fecha": "5/23/2019",
  "importe": 38,
  "latitud": "51.84045",
  "longitud": "39.94134"
}, {
  "id": 10,
  "fecha": "6/11/2019",
  "importe": 57,
  "latitud": 29.514498,
  "longitud": 110.840021
}]
